<?xml version="1.0" encoding="UTF-8" standalone="no"?>
<!DOCTYPE svg PUBLIC "-//W3C//DTD SVG 1.1//EN"
 "http://www.w3.org/Graphics/SVG/1.1/DTD/svg11.dtd">
<!-- Generated by graphviz version 2.38.0 (20140413.2041)
 -->
<!-- Title: snakemake_dag Pages: 1 -->
<svg width="1625pt" height="1124pt"
 viewBox="0.00 0.00 1624.50 1124.00" xmlns="http://www.w3.org/2000/svg" xmlns:xlink="http://www.w3.org/1999/xlink">
<g id="graph0" class="graph" transform="scale(1 1) rotate(0) translate(4 1120)">
<title>snakemake_dag</title>
<polygon fill="white" stroke="none" points="-4,4 -4,-1120 1620.5,-1120 1620.5,4 -4,4"/>
<!-- 0 -->
<g id="node1" class="node"><title>0</title>
<path fill="none" stroke="#d85656" stroke-width="2" d="M552,-36C552,-36 522,-36 522,-36 516,-36 510,-30 510,-24 510,-24 510,-12 510,-12 510,-6 516,-0 522,-0 522,-0 552,-0 552,-0 558,-0 564,-6 564,-12 564,-12 564,-24 564,-24 564,-30 558,-36 552,-36"/>
<text text-anchor="middle" x="537" y="-15.5" font-family="sans" font-size="10.00">all</text>
</g>
<!-- 1 -->
<g id="node2" class="node"><title>1</title>
<path fill="none" stroke="#568ad8" stroke-width="2" d="M126,-108C126,-108 12,-108 12,-108 6,-108 0,-102 0,-96 0,-96 0,-84 0,-84 0,-78 6,-72 12,-72 12,-72 126,-72 126,-72 132,-72 138,-78 138,-84 138,-84 138,-96 138,-96 138,-102 132,-108 126,-108"/>
<text text-anchor="middle" x="69" y="-93" font-family="sans" font-size="10.00">fastqc</text>
<text text-anchor="middle" x="69" y="-82" font-family="sans" font-size="10.00">sample: SRR2131198_R1</text>
</g>
<!-- 1&#45;&gt;0 -->
<g id="edge1" class="edge"><title>1&#45;&gt;0</title>
<path fill="none" stroke="grey" stroke-width="2" d="M138.266,-73.6042C141.213,-73.0439 144.134,-72.5063 147,-72 275.967,-49.2199 430.426,-30.8423 499.919,-23.0437"/>
<polygon fill="grey" stroke="grey" stroke-width="2" points="500.384,-26.5137 509.934,-21.9272 499.608,-19.5568 500.384,-26.5137"/>
</g>
<!-- 2 -->
<g id="node3" class="node"><title>2</title>
<path fill="none" stroke="#568ad8" stroke-width="2" d="M282,-108C282,-108 168,-108 168,-108 162,-108 156,-102 156,-96 156,-96 156,-84 156,-84 156,-78 162,-72 168,-72 168,-72 282,-72 282,-72 288,-72 294,-78 294,-84 294,-84 294,-96 294,-96 294,-102 288,-108 282,-108"/>
<text text-anchor="middle" x="225" y="-93" font-family="sans" font-size="10.00">fastqc</text>
<text text-anchor="middle" x="225" y="-82" font-family="sans" font-size="10.00">sample: SRR2131199_R1</text>
</g>
<!-- 2&#45;&gt;0 -->
<g id="edge2" class="edge"><title>2&#45;&gt;0</title>
<path fill="none" stroke="grey" stroke-width="2" d="M294.243,-73.4647C357.73,-59.2208 449.327,-38.6703 499.915,-27.3203"/>
<polygon fill="grey" stroke="grey" stroke-width="2" points="500.773,-30.7149 509.764,-25.1106 499.241,-23.8847 500.773,-30.7149"/>
</g>
<!-- 3 -->
<g id="node4" class="node"><title>3</title>
<path fill="none" stroke="#568ad8" stroke-width="2" d="M438,-108C438,-108 324,-108 324,-108 318,-108 312,-102 312,-96 312,-96 312,-84 312,-84 312,-78 318,-72 324,-72 324,-72 438,-72 438,-72 444,-72 450,-78 450,-84 450,-84 450,-96 450,-96 450,-102 444,-108 438,-108"/>
<text text-anchor="middle" x="381" y="-93" font-family="sans" font-size="10.00">fastqc</text>
<text text-anchor="middle" x="381" y="-82" font-family="sans" font-size="10.00">sample: SRR2131198_R2</text>
</g>
<!-- 3&#45;&gt;0 -->
<g id="edge3" class="edge"><title>3&#45;&gt;0</title>
<path fill="none" stroke="grey" stroke-width="2" d="M419.162,-71.8761C444.007,-60.7276 476.224,-46.2715 500.69,-35.2929"/>
<polygon fill="grey" stroke="grey" stroke-width="2" points="502.298,-38.4079 509.988,-31.1206 499.432,-32.0214 502.298,-38.4079"/>
</g>
<!-- 4 -->
<g id="node5" class="node"><title>4</title>
<path fill="none" stroke="#568ad8" stroke-width="2" d="M594,-108C594,-108 480,-108 480,-108 474,-108 468,-102 468,-96 468,-96 468,-84 468,-84 468,-78 474,-72 480,-72 480,-72 594,-72 594,-72 600,-72 606,-78 606,-84 606,-84 606,-96 606,-96 606,-102 600,-108 594,-108"/>
<text text-anchor="middle" x="537" y="-93" font-family="sans" font-size="10.00">fastqc</text>
<text text-anchor="middle" x="537" y="-82" font-family="sans" font-size="10.00">sample: SRR2131199_R2</text>
</g>
<!-- 4&#45;&gt;0 -->
<g id="edge4" class="edge"><title>4&#45;&gt;0</title>
<path fill="none" stroke="grey" stroke-width="2" d="M537,-71.6966C537,-63.9827 537,-54.7125 537,-46.1124"/>
<polygon fill="grey" stroke="grey" stroke-width="2" points="540.5,-46.1043 537,-36.1043 533.5,-46.1044 540.5,-46.1043"/>
</g>
<!-- 5 -->
<g id="node6" class="node"><title>5</title>
<path fill="none" stroke="#566bd8" stroke-width="2" d="M1313.5,-108C1313.5,-108 1232.5,-108 1232.5,-108 1226.5,-108 1220.5,-102 1220.5,-96 1220.5,-96 1220.5,-84 1220.5,-84 1220.5,-78 1226.5,-72 1232.5,-72 1232.5,-72 1313.5,-72 1313.5,-72 1319.5,-72 1325.5,-78 1325.5,-84 1325.5,-84 1325.5,-96 1325.5,-96 1325.5,-102 1319.5,-108 1313.5,-108"/>
<text text-anchor="middle" x="1273" y="-87.5" font-family="sans" font-size="10.00">annotate_variants</text>
</g>
<!-- 5&#45;&gt;0 -->
<g id="edge5" class="edge"><title>5&#45;&gt;0</title>
<path fill="none" stroke="grey" stroke-width="2" d="M1220.36,-83.9939C1079.36,-70.5834 695.618,-34.0859 574.293,-22.5469"/>
<polygon fill="grey" stroke="grey" stroke-width="2" points="574.326,-19.0343 564.039,-21.5717 573.663,-26.0029 574.326,-19.0343"/>
</g>
<!-- 6 -->
<g id="node7" class="node"><title>6</title>
<path fill="none" stroke="#56d8b1" stroke-width="2" d="M434,-684C434,-684 302,-684 302,-684 296,-684 290,-678 290,-672 290,-672 290,-660 290,-660 290,-654 296,-648 302,-648 302,-648 434,-648 434,-648 440,-648 446,-654 446,-660 446,-660 446,-672 446,-672 446,-678 440,-684 434,-684"/>
<text text-anchor="middle" x="368" y="-663.5" font-family="sans" font-size="10.00">calculate_average_coverage</text>
</g>
<!-- 6&#45;&gt;0 -->
<g id="edge6" class="edge"><title>6&#45;&gt;0</title>
<path fill="none" stroke="grey" stroke-width="2" d="M422.471,-647.992C500.293,-622.028 634,-570.507 634,-523 634,-523 634,-523 634,-161 634,-120.553 637.575,-105.561 615,-72 604.708,-56.7004 588.375,-44.6046 573.309,-35.8548"/>
<polygon fill="grey" stroke="grey" stroke-width="2" points="574.608,-32.576 564.156,-30.8405 571.245,-38.715 574.608,-32.576"/>
</g>
<!-- 7 -->
<g id="node8" class="node"><title>7</title>
<path fill="none" stroke="#56d8b1" stroke-width="2" d="M1371,-684C1371,-684 1239,-684 1239,-684 1233,-684 1227,-678 1227,-672 1227,-672 1227,-660 1227,-660 1227,-654 1233,-648 1239,-648 1239,-648 1371,-648 1371,-648 1377,-648 1383,-654 1383,-660 1383,-660 1383,-672 1383,-672 1383,-678 1377,-684 1371,-684"/>
<text text-anchor="middle" x="1305" y="-663.5" font-family="sans" font-size="10.00">calculate_average_coverage</text>
</g>
<!-- 7&#45;&gt;0 -->
<g id="edge7" class="edge"><title>7&#45;&gt;0</title>
<path fill="none" stroke="grey" stroke-width="2" d="M1342.83,-647.899C1385.5,-625.722 1449,-582.688 1449,-523 1449,-523 1449,-523 1449,-161 1449,-96.7213 1395.05,-94.9197 1335,-72 1193.24,-17.8984 711.899,-17.5439 574.124,-18.5976"/>
<polygon fill="grey" stroke="grey" stroke-width="2" points="574.038,-15.0981 564.068,-18.6819 574.097,-22.0979 574.038,-15.0981"/>
</g>
<!-- 8 -->
<g id="node9" class="node"><title>8</title>
<path fill="none" stroke="#d8c356" stroke-width="2" d="M1323.5,-180C1323.5,-180 1222.5,-180 1222.5,-180 1216.5,-180 1210.5,-174 1210.5,-168 1210.5,-168 1210.5,-156 1210.5,-156 1210.5,-150 1216.5,-144 1222.5,-144 1222.5,-144 1323.5,-144 1323.5,-144 1329.5,-144 1335.5,-150 1335.5,-156 1335.5,-156 1335.5,-168 1335.5,-168 1335.5,-174 1329.5,-180 1323.5,-180"/>
<text text-anchor="middle" x="1273" y="-159.5" font-family="sans" font-size="10.00">filtered_removed_VCF</text>
</g>
<!-- 8&#45;&gt;5 -->
<g id="edge8" class="edge"><title>8&#45;&gt;5</title>
<path fill="none" stroke="grey" stroke-width="2" d="M1273,-143.697C1273,-135.983 1273,-126.712 1273,-118.112"/>
<polygon fill="grey" stroke="grey" stroke-width="2" points="1276.5,-118.104 1273,-108.104 1269.5,-118.104 1276.5,-118.104"/>
</g>
<!-- 9 -->
<g id="node10" class="node"><title>9</title>
<path fill="none" stroke="#78d856" stroke-width="2" d="M1604.5,-540C1604.5,-540 1527.5,-540 1527.5,-540 1521.5,-540 1515.5,-534 1515.5,-528 1515.5,-528 1515.5,-516 1515.5,-516 1515.5,-510 1521.5,-504 1527.5,-504 1527.5,-504 1604.5,-504 1604.5,-504 1610.5,-504 1616.5,-510 1616.5,-516 1616.5,-516 1616.5,-528 1616.5,-528 1616.5,-534 1610.5,-540 1604.5,-540"/>
<text text-anchor="middle" x="1566" y="-519.5" font-family="sans" font-size="10.00">create_snpEff_db</text>
</g>
<!-- 9&#45;&gt;5 -->
<g id="edge9" class="edge"><title>9&#45;&gt;5</title>
<path fill="none" stroke="grey" stroke-width="2" d="M1558.88,-503.628C1535.09,-447.028 1453.66,-264.635 1345,-144 1334.89,-132.771 1322.05,-122.417 1310.03,-113.896"/>
<polygon fill="grey" stroke="grey" stroke-width="2" points="1311.69,-110.795 1301.46,-108.03 1307.73,-116.569 1311.69,-110.795"/>
</g>
<!-- 10 -->
<g id="node11" class="node"><title>10</title>
<path fill="none" stroke="#56b1d8" stroke-width="2" d="M560,-828C560,-828 486,-828 486,-828 480,-828 474,-822 474,-816 474,-816 474,-804 474,-804 474,-798 480,-792 486,-792 486,-792 560,-792 560,-792 566,-792 572,-798 572,-804 572,-804 572,-816 572,-816 572,-822 566,-828 560,-828"/>
<text text-anchor="middle" x="523" y="-807.5" font-family="sans" font-size="10.00">mark_duplicates</text>
</g>
<!-- 10&#45;&gt;6 -->
<g id="edge10" class="edge"><title>10&#45;&gt;6</title>
<path fill="none" stroke="grey" stroke-width="2" d="M483.787,-791.956C465.827,-782.939 445.024,-770.681 429,-756 409.177,-737.839 392.409,-712.07 381.5,-692.93"/>
<polygon fill="grey" stroke="grey" stroke-width="2" points="384.534,-691.183 376.628,-684.129 378.41,-694.573 384.534,-691.183"/>
</g>
<!-- 11 -->
<g id="node12" class="node"><title>11</title>
<path fill="none" stroke="#b6d856" stroke-width="2" d="M548.5,-756C548.5,-756 459.5,-756 459.5,-756 453.5,-756 447.5,-750 447.5,-744 447.5,-744 447.5,-732 447.5,-732 447.5,-726 453.5,-720 459.5,-720 459.5,-720 548.5,-720 548.5,-720 554.5,-720 560.5,-726 560.5,-732 560.5,-732 560.5,-744 560.5,-744 560.5,-750 554.5,-756 548.5,-756"/>
<text text-anchor="middle" x="504" y="-735.5" font-family="sans" font-size="10.00">index_marked_bam</text>
</g>
<!-- 10&#45;&gt;11 -->
<g id="edge17" class="edge"><title>10&#45;&gt;11</title>
<path fill="none" stroke="grey" stroke-width="2" d="M518.303,-791.697C516.187,-783.898 513.638,-774.509 511.282,-765.829"/>
<polygon fill="grey" stroke="grey" stroke-width="2" points="514.64,-764.838 508.643,-756.104 507.884,-766.672 514.64,-764.838"/>
</g>
<!-- 29 -->
<g id="node30" class="node"><title>29</title>
<path fill="none" stroke="#d8b456" stroke-width="2" d="M561.5,-684C561.5,-684 476.5,-684 476.5,-684 470.5,-684 464.5,-678 464.5,-672 464.5,-672 464.5,-660 464.5,-660 464.5,-654 470.5,-648 476.5,-648 476.5,-648 561.5,-648 561.5,-648 567.5,-648 573.5,-654 573.5,-660 573.5,-660 573.5,-672 573.5,-672 573.5,-678 567.5,-684 561.5,-684"/>
<text text-anchor="middle" x="519" y="-669" font-family="sans" font-size="10.00">haplotypeCaller</text>
<text text-anchor="middle" x="519" y="-658" font-family="sans" font-size="10.00">interval: interval_1</text>
</g>
<!-- 10&#45;&gt;29 -->
<g id="edge46" class="edge"><title>10&#45;&gt;29</title>
<path fill="none" stroke="grey" stroke-width="2" d="M478.927,-791.983C463.445,-783.62 447.743,-771.855 439,-756 431.274,-741.989 431.43,-734.096 439,-720 445.787,-707.362 457.058,-697.23 469.03,-689.348"/>
<polygon fill="grey" stroke="grey" stroke-width="2" points="471.092,-692.19 477.816,-684.002 467.454,-686.21 471.092,-692.19"/>
</g>
<!-- 30 -->
<g id="node31" class="node"><title>30</title>
<path fill="none" stroke="#d8b456" stroke-width="2" d="M688.5,-684C688.5,-684 603.5,-684 603.5,-684 597.5,-684 591.5,-678 591.5,-672 591.5,-672 591.5,-660 591.5,-660 591.5,-654 597.5,-648 603.5,-648 603.5,-648 688.5,-648 688.5,-648 694.5,-648 700.5,-654 700.5,-660 700.5,-660 700.5,-672 700.5,-672 700.5,-678 694.5,-684 688.5,-684"/>
<text text-anchor="middle" x="646" y="-669" font-family="sans" font-size="10.00">haplotypeCaller</text>
<text text-anchor="middle" x="646" y="-658" font-family="sans" font-size="10.00">interval: interval_2</text>
</g>
<!-- 10&#45;&gt;30 -->
<g id="edge51" class="edge"><title>10&#45;&gt;30</title>
<path fill="none" stroke="grey" stroke-width="2" d="M538.322,-791.886C547.549,-781.539 559.505,-768.06 570,-756 588.738,-734.467 609.798,-709.766 624.988,-691.857"/>
<polygon fill="grey" stroke="grey" stroke-width="2" points="627.73,-694.035 631.525,-684.143 622.389,-689.51 627.73,-694.035"/>
</g>
<!-- 31 -->
<g id="node32" class="node"><title>31</title>
<path fill="none" stroke="#d8b456" stroke-width="2" d="M815.5,-684C815.5,-684 730.5,-684 730.5,-684 724.5,-684 718.5,-678 718.5,-672 718.5,-672 718.5,-660 718.5,-660 718.5,-654 724.5,-648 730.5,-648 730.5,-648 815.5,-648 815.5,-648 821.5,-648 827.5,-654 827.5,-660 827.5,-660 827.5,-672 827.5,-672 827.5,-678 821.5,-684 815.5,-684"/>
<text text-anchor="middle" x="773" y="-669" font-family="sans" font-size="10.00">haplotypeCaller</text>
<text text-anchor="middle" x="773" y="-658" font-family="sans" font-size="10.00">interval: interval_3</text>
</g>
<!-- 10&#45;&gt;31 -->
<g id="edge56" class="edge"><title>10&#45;&gt;31</title>
<path fill="none" stroke="grey" stroke-width="2" d="M553.156,-791.871C598.391,-766.178 683.828,-717.65 733.831,-689.248"/>
<polygon fill="grey" stroke="grey" stroke-width="2" points="735.771,-692.172 742.737,-684.189 732.313,-686.085 735.771,-692.172"/>
</g>
<!-- 11&#45;&gt;6 -->
<g id="edge11" class="edge"><title>11&#45;&gt;6</title>
<path fill="none" stroke="grey" stroke-width="2" d="M470.731,-719.876C452.537,-710.512 429.809,-698.814 410.36,-688.803"/>
<polygon fill="grey" stroke="grey" stroke-width="2" points="411.89,-685.654 401.397,-684.19 408.687,-691.878 411.89,-685.654"/>
</g>
<!-- 11&#45;&gt;29 -->
<g id="edge47" class="edge"><title>11&#45;&gt;29</title>
<path fill="none" stroke="grey" stroke-width="2" d="M507.708,-719.697C509.361,-711.983 511.347,-702.712 513.19,-694.112"/>
<polygon fill="grey" stroke="grey" stroke-width="2" points="516.662,-694.616 515.335,-684.104 509.817,-693.149 516.662,-694.616"/>
</g>
<!-- 11&#45;&gt;30 -->
<g id="edge52" class="edge"><title>11&#45;&gt;30</title>
<path fill="none" stroke="grey" stroke-width="2" d="M538.737,-719.876C557.819,-710.469 581.679,-698.708 602.047,-688.667"/>
<polygon fill="grey" stroke="grey" stroke-width="2" points="603.708,-691.751 611.129,-684.19 600.612,-685.472 603.708,-691.751"/>
</g>
<!-- 11&#45;&gt;31 -->
<g id="edge57" class="edge"><title>11&#45;&gt;31</title>
<path fill="none" stroke="grey" stroke-width="2" d="M560.881,-722.557C599.927,-712.598 653.201,-698.925 708.412,-684.406"/>
<polygon fill="grey" stroke="grey" stroke-width="2" points="709.596,-687.714 718.375,-681.782 707.813,-680.944 709.596,-687.714"/>
</g>
<!-- 12 -->
<g id="node13" class="node"><title>12</title>
<path fill="none" stroke="#56b1d8" stroke-width="2" d="M1204,-828C1204,-828 1130,-828 1130,-828 1124,-828 1118,-822 1118,-816 1118,-816 1118,-804 1118,-804 1118,-798 1124,-792 1130,-792 1130,-792 1204,-792 1204,-792 1210,-792 1216,-798 1216,-804 1216,-804 1216,-816 1216,-816 1216,-822 1210,-828 1204,-828"/>
<text text-anchor="middle" x="1167" y="-807.5" font-family="sans" font-size="10.00">mark_duplicates</text>
</g>
<!-- 12&#45;&gt;7 -->
<g id="edge12" class="edge"><title>12&#45;&gt;7</title>
<path fill="none" stroke="grey" stroke-width="2" d="M1207.07,-791.819C1224.29,-782.982 1243.7,-770.909 1258,-756 1275.2,-738.068 1287.8,-712.594 1295.59,-693.491"/>
<polygon fill="grey" stroke="grey" stroke-width="2" points="1298.86,-694.744 1299.23,-684.156 1292.34,-692.202 1298.86,-694.744"/>
</g>
<!-- 13 -->
<g id="node14" class="node"><title>13</title>
<path fill="none" stroke="#b6d856" stroke-width="2" d="M1220.5,-756C1220.5,-756 1131.5,-756 1131.5,-756 1125.5,-756 1119.5,-750 1119.5,-744 1119.5,-744 1119.5,-732 1119.5,-732 1119.5,-726 1125.5,-720 1131.5,-720 1131.5,-720 1220.5,-720 1220.5,-720 1226.5,-720 1232.5,-726 1232.5,-732 1232.5,-732 1232.5,-744 1232.5,-744 1232.5,-750 1226.5,-756 1220.5,-756"/>
<text text-anchor="middle" x="1176" y="-735.5" font-family="sans" font-size="10.00">index_marked_bam</text>
</g>
<!-- 12&#45;&gt;13 -->
<g id="edge19" class="edge"><title>12&#45;&gt;13</title>
<path fill="none" stroke="grey" stroke-width="2" d="M1169.22,-791.697C1170.22,-783.983 1171.41,-774.712 1172.51,-766.112"/>
<polygon fill="grey" stroke="grey" stroke-width="2" points="1176,-766.469 1173.8,-756.104 1169.05,-765.576 1176,-766.469"/>
</g>
<!-- 32 -->
<g id="node33" class="node"><title>32</title>
<path fill="none" stroke="#d8b456" stroke-width="2" d="M942.5,-684C942.5,-684 857.5,-684 857.5,-684 851.5,-684 845.5,-678 845.5,-672 845.5,-672 845.5,-660 845.5,-660 845.5,-654 851.5,-648 857.5,-648 857.5,-648 942.5,-648 942.5,-648 948.5,-648 954.5,-654 954.5,-660 954.5,-660 954.5,-672 954.5,-672 954.5,-678 948.5,-684 942.5,-684"/>
<text text-anchor="middle" x="900" y="-669" font-family="sans" font-size="10.00">haplotypeCaller</text>
<text text-anchor="middle" x="900" y="-658" font-family="sans" font-size="10.00">interval: interval_1</text>
</g>
<!-- 12&#45;&gt;32 -->
<g id="edge61" class="edge"><title>12&#45;&gt;32</title>
<path fill="none" stroke="grey" stroke-width="2" d="M1134.79,-791.871C1086.28,-766.071 994.478,-717.247 941.17,-688.896"/>
<polygon fill="grey" stroke="grey" stroke-width="2" points="942.793,-685.795 932.321,-684.189 939.506,-691.975 942.793,-685.795"/>
</g>
<!-- 33 -->
<g id="node34" class="node"><title>33</title>
<path fill="none" stroke="#d8b456" stroke-width="2" d="M1069.5,-684C1069.5,-684 984.5,-684 984.5,-684 978.5,-684 972.5,-678 972.5,-672 972.5,-672 972.5,-660 972.5,-660 972.5,-654 978.5,-648 984.5,-648 984.5,-648 1069.5,-648 1069.5,-648 1075.5,-648 1081.5,-654 1081.5,-660 1081.5,-660 1081.5,-672 1081.5,-672 1081.5,-678 1075.5,-684 1069.5,-684"/>
<text text-anchor="middle" x="1027" y="-669" font-family="sans" font-size="10.00">haplotypeCaller</text>
<text text-anchor="middle" x="1027" y="-658" font-family="sans" font-size="10.00">interval: interval_2</text>
</g>
<!-- 12&#45;&gt;33 -->
<g id="edge66" class="edge"><title>12&#45;&gt;33</title>
<path fill="none" stroke="grey" stroke-width="2" d="M1148.34,-791.832C1137.33,-781.581 1123.2,-768.219 1111,-756 1089.78,-734.749 1066.38,-709.832 1049.68,-691.776"/>
<polygon fill="grey" stroke="grey" stroke-width="2" points="1051.87,-688.98 1042.51,-684.001 1046.72,-693.725 1051.87,-688.98"/>
</g>
<!-- 34 -->
<g id="node35" class="node"><title>34</title>
<path fill="none" stroke="#d8b456" stroke-width="2" d="M1196.5,-684C1196.5,-684 1111.5,-684 1111.5,-684 1105.5,-684 1099.5,-678 1099.5,-672 1099.5,-672 1099.5,-660 1099.5,-660 1099.5,-654 1105.5,-648 1111.5,-648 1111.5,-648 1196.5,-648 1196.5,-648 1202.5,-648 1208.5,-654 1208.5,-660 1208.5,-660 1208.5,-672 1208.5,-672 1208.5,-678 1202.5,-684 1196.5,-684"/>
<text text-anchor="middle" x="1154" y="-669" font-family="sans" font-size="10.00">haplotypeCaller</text>
<text text-anchor="middle" x="1154" y="-658" font-family="sans" font-size="10.00">interval: interval_3</text>
</g>
<!-- 12&#45;&gt;34 -->
<g id="edge71" class="edge"><title>12&#45;&gt;34</title>
<path fill="none" stroke="grey" stroke-width="2" d="M1204.88,-791.909C1219.23,-783.332 1234.01,-771.433 1242,-756 1249.36,-741.792 1249.87,-733.93 1242,-720 1234.66,-707.006 1222.71,-696.843 1209.96,-689.05"/>
<polygon fill="grey" stroke="grey" stroke-width="2" points="1211.47,-685.887 1201.04,-684.027 1208.04,-691.986 1211.47,-685.887"/>
</g>
<!-- 13&#45;&gt;7 -->
<g id="edge13" class="edge"><title>13&#45;&gt;7</title>
<path fill="none" stroke="grey" stroke-width="2" d="M1207.56,-719.876C1224.66,-710.596 1245.98,-699.025 1264.32,-689.075"/>
<polygon fill="grey" stroke="grey" stroke-width="2" points="1266.2,-692.035 1273.32,-684.19 1262.86,-685.883 1266.2,-692.035"/>
</g>
<!-- 13&#45;&gt;32 -->
<g id="edge62" class="edge"><title>13&#45;&gt;32</title>
<path fill="none" stroke="grey" stroke-width="2" d="M1119.25,-723.053C1078.78,-713.05 1022.81,-699.108 964.549,-684.124"/>
<polygon fill="grey" stroke="grey" stroke-width="2" points="965.356,-680.718 954.799,-681.612 963.61,-687.496 965.356,-680.718"/>
</g>
<!-- 13&#45;&gt;33 -->
<g id="edge67" class="edge"><title>13&#45;&gt;33</title>
<path fill="none" stroke="grey" stroke-width="2" d="M1139.55,-719.876C1119.36,-710.392 1094.08,-698.513 1072.59,-688.419"/>
<polygon fill="grey" stroke="grey" stroke-width="2" points="1073.87,-685.153 1063.33,-684.068 1070.89,-691.488 1073.87,-685.153"/>
</g>
<!-- 13&#45;&gt;34 -->
<g id="edge72" class="edge"><title>13&#45;&gt;34</title>
<path fill="none" stroke="grey" stroke-width="2" d="M1170.56,-719.697C1168.11,-711.898 1165.16,-702.509 1162.43,-693.829"/>
<polygon fill="grey" stroke="grey" stroke-width="2" points="1165.71,-692.595 1159.38,-684.104 1159.04,-694.694 1165.71,-692.595"/>
</g>
<!-- 14 -->
<g id="node15" class="node"><title>14</title>
<path fill="none" stroke="#d88d56" stroke-width="2" d="M1320.5,-252C1320.5,-252 1225.5,-252 1225.5,-252 1219.5,-252 1213.5,-246 1213.5,-240 1213.5,-240 1213.5,-228 1213.5,-228 1213.5,-222 1219.5,-216 1225.5,-216 1225.5,-216 1320.5,-216 1320.5,-216 1326.5,-216 1332.5,-222 1332.5,-228 1332.5,-228 1332.5,-240 1332.5,-240 1332.5,-246 1326.5,-252 1320.5,-252"/>
<text text-anchor="middle" x="1273" y="-231.5" font-family="sans" font-size="10.00">merged_filtered_VCF</text>
</g>
<!-- 14&#45;&gt;8 -->
<g id="edge14" class="edge"><title>14&#45;&gt;8</title>
<path fill="none" stroke="grey" stroke-width="2" d="M1273,-215.697C1273,-207.983 1273,-198.712 1273,-190.112"/>
<polygon fill="grey" stroke="grey" stroke-width="2" points="1276.5,-190.104 1273,-180.104 1269.5,-190.104 1276.5,-190.104"/>
</g>
<!-- 15 -->
<g id="node16" class="node"><title>15</title>
<path fill="none" stroke="#59d856" stroke-width="2" d="M1013.5,-1116C1013.5,-1116 942.5,-1116 942.5,-1116 936.5,-1116 930.5,-1110 930.5,-1104 930.5,-1104 930.5,-1092 930.5,-1092 930.5,-1086 936.5,-1080 942.5,-1080 942.5,-1080 1013.5,-1080 1013.5,-1080 1019.5,-1080 1025.5,-1086 1025.5,-1092 1025.5,-1092 1025.5,-1104 1025.5,-1104 1025.5,-1110 1019.5,-1116 1013.5,-1116"/>
<text text-anchor="middle" x="978" y="-1095.5" font-family="sans" font-size="10.00">bgzip_reference</text>
</g>
<!-- 15&#45;&gt;9 -->
<g id="edge15" class="edge"><title>15&#45;&gt;9</title>
<path fill="none" stroke="grey" stroke-width="2" d="M1025.64,-1094.79C1147.26,-1088.78 1462.38,-1070.78 1501,-1044 1537.26,-1018.86 1545,-999.126 1545,-955 1545,-955 1545,-955 1545,-665 1545,-624.782 1553.35,-578.839 1559.51,-550.372"/>
<polygon fill="grey" stroke="grey" stroke-width="2" points="1562.99,-550.889 1561.75,-540.366 1556.15,-549.362 1562.99,-550.889"/>
</g>
<!-- 20 -->
<g id="node21" class="node"><title>20</title>
<path fill="none" stroke="#d8a456" stroke-width="2" d="M625,-972C625,-972 529,-972 529,-972 523,-972 517,-966 517,-960 517,-960 517,-948 517,-948 517,-942 523,-936 529,-936 529,-936 625,-936 625,-936 631,-936 637,-942 637,-948 637,-948 637,-960 637,-960 637,-966 631,-972 625,-972"/>
<text text-anchor="middle" x="577" y="-957" font-family="sans" font-size="10.00">mapping</text>
<text text-anchor="middle" x="577" y="-946" font-family="sans" font-size="10.00">sample: SRR2131198</text>
</g>
<!-- 15&#45;&gt;20 -->
<g id="edge26" class="edge"><title>15&#45;&gt;20</title>
<path fill="none" stroke="grey" stroke-width="2" d="M930.348,-1093.39C851.472,-1086.74 697.819,-1070.74 651,-1044 625.008,-1029.16 604.21,-1001.45 591.361,-980.883"/>
<polygon fill="grey" stroke="grey" stroke-width="2" points="594.342,-979.048 586.188,-972.283 588.344,-982.657 594.342,-979.048"/>
</g>
<!-- 21 -->
<g id="node22" class="node"><title>21</title>
<path fill="none" stroke="#d8a456" stroke-width="2" d="M1189,-972C1189,-972 1093,-972 1093,-972 1087,-972 1081,-966 1081,-960 1081,-960 1081,-948 1081,-948 1081,-942 1087,-936 1093,-936 1093,-936 1189,-936 1189,-936 1195,-936 1201,-942 1201,-948 1201,-948 1201,-960 1201,-960 1201,-966 1195,-972 1189,-972"/>
<text text-anchor="middle" x="1141" y="-957" font-family="sans" font-size="10.00">mapping</text>
<text text-anchor="middle" x="1141" y="-946" font-family="sans" font-size="10.00">sample: SRR2131199</text>
</g>
<!-- 15&#45;&gt;21 -->
<g id="edge28" class="edge"><title>15&#45;&gt;21</title>
<path fill="none" stroke="grey" stroke-width="2" d="M1025.51,-1089.34C1054.75,-1082.27 1090.93,-1068.92 1114,-1044 1129.55,-1027.2 1136.16,-1001.72 1138.96,-982.321"/>
<polygon fill="grey" stroke="grey" stroke-width="2" points="1142.45,-982.607 1140.15,-972.263 1135.5,-981.779 1142.45,-982.607"/>
</g>
<!-- 24 -->
<g id="node25" class="node"><title>24</title>
<path fill="none" stroke="#567bd8" stroke-width="2" d="M1059.5,-1044C1059.5,-1044 978.5,-1044 978.5,-1044 972.5,-1044 966.5,-1038 966.5,-1032 966.5,-1032 966.5,-1020 966.5,-1020 966.5,-1014 972.5,-1008 978.5,-1008 978.5,-1008 1059.5,-1008 1059.5,-1008 1065.5,-1008 1071.5,-1014 1071.5,-1020 1071.5,-1020 1071.5,-1032 1071.5,-1032 1071.5,-1038 1065.5,-1044 1059.5,-1044"/>
<text text-anchor="middle" x="1019" y="-1023.5" font-family="sans" font-size="10.00">create_bwa_index</text>
</g>
<!-- 15&#45;&gt;24 -->
<g id="edge32" class="edge"><title>15&#45;&gt;24</title>
<path fill="none" stroke="grey" stroke-width="2" d="M988.135,-1079.7C992.852,-1071.64 998.562,-1061.89 1003.78,-1052.98"/>
<polygon fill="grey" stroke="grey" stroke-width="2" points="1006.95,-1054.5 1008.98,-1044.1 1000.91,-1050.96 1006.95,-1054.5"/>
</g>
<!-- 25 -->
<g id="node26" class="node"><title>25</title>
<path fill="none" stroke="#c6d856" stroke-width="2" d="M1345,-468C1345,-468 1275,-468 1275,-468 1269,-468 1263,-462 1263,-456 1263,-456 1263,-444 1263,-444 1263,-438 1269,-432 1275,-432 1275,-432 1345,-432 1345,-432 1351,-432 1357,-438 1357,-444 1357,-444 1357,-456 1357,-456 1357,-462 1351,-468 1345,-468"/>
<text text-anchor="middle" x="1310" y="-447.5" font-family="sans" font-size="10.00">genotypeGVCFs</text>
</g>
<!-- 15&#45;&gt;25 -->
<g id="edge34" class="edge"><title>15&#45;&gt;25</title>
<path fill="none" stroke="grey" stroke-width="2" d="M1025.59,-1094.67C1120.5,-1089.43 1329.68,-1074.68 1394,-1044 1445.64,-1019.37 1487,-1012.21 1487,-955 1487,-955 1487,-955 1487,-593 1487,-530.322 1418.64,-490.705 1366.88,-469.693"/>
<polygon fill="grey" stroke="grey" stroke-width="2" points="1368.02,-466.38 1357.43,-465.985 1365.46,-472.896 1368.02,-466.38"/>
</g>
<!-- 26 -->
<g id="node27" class="node"><title>26</title>
<path fill="none" stroke="#56c9d8" stroke-width="2" d="M1237,-540C1237,-540 1175,-540 1175,-540 1169,-540 1163,-534 1163,-528 1163,-528 1163,-516 1163,-516 1163,-510 1169,-504 1175,-504 1175,-504 1237,-504 1237,-504 1243,-504 1249,-510 1249,-516 1249,-516 1249,-528 1249,-528 1249,-534 1243,-540 1237,-540"/>
<text text-anchor="middle" x="1206" y="-519.5" font-family="sans" font-size="10.00">combine_calls</text>
</g>
<!-- 15&#45;&gt;26 -->
<g id="edge35" class="edge"><title>15&#45;&gt;26</title>
<path fill="none" stroke="grey" stroke-width="2" d="M1025.6,-1097.78C1096.62,-1097.26 1233.18,-1089.68 1338,-1044 1395.97,-1018.74 1449,-1018.23 1449,-955 1449,-955 1449,-955 1449,-737 1449,-636.261 1329.92,-571.695 1258.48,-542.023"/>
<polygon fill="grey" stroke="grey" stroke-width="2" points="1259.75,-538.758 1249.16,-538.237 1257.11,-545.243 1259.75,-538.758"/>
</g>
<!-- 27 -->
<g id="node28" class="node"><title>27</title>
<path fill="none" stroke="#56d8a2" stroke-width="2" d="M746,-612C746,-612 674,-612 674,-612 668,-612 662,-606 662,-600 662,-600 662,-588 662,-588 662,-582 668,-576 674,-576 674,-576 746,-576 746,-576 752,-576 758,-582 758,-588 758,-588 758,-600 758,-600 758,-606 752,-612 746,-612"/>
<text text-anchor="middle" x="710" y="-591.5" font-family="sans" font-size="10.00">gather_intervals</text>
</g>
<!-- 15&#45;&gt;27 -->
<g id="edge38" class="edge"><title>15&#45;&gt;27</title>
<path fill="none" stroke="grey" stroke-width="2" d="M930.467,-1097.71C770.551,-1098.85 262,-1091.71 262,-955 262,-955 262,-955 262,-737 262,-696.553 251.178,-675.323 281,-648 333.947,-599.49 547.481,-593.889 651.913,-594.153"/>
<polygon fill="grey" stroke="grey" stroke-width="2" points="651.957,-597.653 661.972,-594.198 651.988,-590.653 651.957,-597.653"/>
</g>
<!-- 28 -->
<g id="node29" class="node"><title>28</title>
<path fill="none" stroke="#56d8a2" stroke-width="2" d="M1190,-612C1190,-612 1118,-612 1118,-612 1112,-612 1106,-606 1106,-600 1106,-600 1106,-588 1106,-588 1106,-582 1112,-576 1118,-576 1118,-576 1190,-576 1190,-576 1196,-576 1202,-582 1202,-588 1202,-588 1202,-600 1202,-600 1202,-606 1196,-612 1190,-612"/>
<text text-anchor="middle" x="1154" y="-591.5" font-family="sans" font-size="10.00">gather_intervals</text>
</g>
<!-- 15&#45;&gt;28 -->
<g id="edge42" class="edge"><title>15&#45;&gt;28</title>
<path fill="none" stroke="grey" stroke-width="2" d="M1025.58,-1091.64C1138.06,-1077.64 1411,-1035.4 1411,-955 1411,-955 1411,-955 1411,-737 1411,-696.553 1420.47,-676.726 1392,-648 1367.23,-623.01 1274.26,-608.126 1212.12,-600.761"/>
<polygon fill="grey" stroke="grey" stroke-width="2" points="1212.38,-597.268 1202.04,-599.6 1211.58,-604.222 1212.38,-597.268"/>
</g>
<!-- 15&#45;&gt;29 -->
<g id="edge48" class="edge"><title>15&#45;&gt;29</title>
<path fill="none" stroke="grey" stroke-width="2" d="M930.272,-1096.51C782.595,-1093.72 343,-1075.31 343,-955 343,-955 343,-955 343,-809 343,-748.57 406.624,-709.474 457.365,-687.903"/>
<polygon fill="grey" stroke="grey" stroke-width="2" points="458.752,-691.117 466.671,-684.078 456.091,-684.643 458.752,-691.117"/>
</g>
<!-- 15&#45;&gt;30 -->
<g id="edge53" class="edge"><title>15&#45;&gt;30</title>
<path fill="none" stroke="grey" stroke-width="2" d="M930.225,-1092C864.53,-1084.35 750.605,-1068.05 717,-1044 679.746,-1017.34 665,-1000.81 665,-955 665,-955 665,-955 665,-809 665,-768.86 657.449,-722.897 651.868,-694.405"/>
<polygon fill="grey" stroke="grey" stroke-width="2" points="655.255,-693.498 649.845,-684.388 648.394,-694.883 655.255,-693.498"/>
</g>
<!-- 15&#45;&gt;31 -->
<g id="edge58" class="edge"><title>15&#45;&gt;31</title>
<path fill="none" stroke="grey" stroke-width="2" d="M930.413,-1093.68C851.704,-1085.32 703,-1056.15 703,-955 703,-955 703,-955 703,-809 703,-768.458 703.968,-755.797 723,-720 728.547,-709.567 736.702,-699.692 744.825,-691.356"/>
<polygon fill="grey" stroke="grey" stroke-width="2" points="747.485,-693.65 752.198,-684.161 742.597,-688.64 747.485,-693.65"/>
</g>
<!-- 15&#45;&gt;32 -->
<g id="edge63" class="edge"><title>15&#45;&gt;32</title>
<path fill="none" stroke="grey" stroke-width="2" d="M969.694,-1079.79C965.259,-1069.63 960.259,-1056.38 958,-1044 932.16,-902.337 1016.09,-851.765 958,-720 953.014,-708.689 944.289,-698.744 935.098,-690.616"/>
<polygon fill="grey" stroke="grey" stroke-width="2" points="937.284,-687.882 927.34,-684.225 932.833,-693.285 937.284,-687.882"/>
</g>
<!-- 15&#45;&gt;33 -->
<g id="edge68" class="edge"><title>15&#45;&gt;33</title>
<path fill="none" stroke="grey" stroke-width="2" d="M1025.55,-1084.76C1046.37,-1076.77 1068.8,-1064 1081,-1044 1089.33,-1030.34 1082.95,-1023.88 1081,-1008 1078.98,-991.631 1075.72,-988.067 1072,-972 1062.87,-932.597 1053,-923.447 1053,-883 1053,-883 1053,-883 1053,-809 1053,-768.553 1042.67,-722.67 1035.03,-694.279"/>
<polygon fill="grey" stroke="grey" stroke-width="2" points="1038.31,-693.002 1032.26,-684.302 1031.56,-694.873 1038.31,-693.002"/>
</g>
<!-- 15&#45;&gt;34 -->
<g id="edge73" class="edge"><title>15&#45;&gt;34</title>
<path fill="none" stroke="grey" stroke-width="2" d="M1025.67,-1088.51C1123.33,-1069.77 1337,-1021.19 1337,-955 1337,-955 1337,-955 1337,-809 1337,-747.164 1270.98,-708.381 1218.24,-687.266"/>
<polygon fill="grey" stroke="grey" stroke-width="2" points="1219.5,-683.998 1208.91,-683.653 1216.97,-690.526 1219.5,-683.998"/>
</g>
<!-- 35 -->
<g id="node36" class="node"><title>35</title>
<path fill="none" stroke="#8fd856" stroke-width="2" d="M937,-756C937,-756 863,-756 863,-756 857,-756 851,-750 851,-744 851,-744 851,-732 851,-732 851,-726 857,-720 863,-720 863,-720 937,-720 937,-720 943,-720 949,-726 949,-732 949,-732 949,-744 949,-744 949,-750 943,-756 937,-756"/>
<text text-anchor="middle" x="900" y="-735.5" font-family="sans" font-size="10.00">create_fai_index</text>
</g>
<!-- 15&#45;&gt;35 -->
<g id="edge76" class="edge"><title>15&#45;&gt;35</title>
<path fill="none" stroke="grey" stroke-width="2" d="M955.48,-1079.78C944.525,-1070.31 932.023,-1057.72 924,-1044 903.322,-1008.63 900,-995.969 900,-955 900,-955 900,-955 900,-881 900,-840.996 900,-794.653 900,-766.08"/>
<polygon fill="grey" stroke="grey" stroke-width="2" points="903.5,-766.049 900,-756.049 896.5,-766.049 903.5,-766.049"/>
</g>
<!-- 36 -->
<g id="node37" class="node"><title>36</title>
<path fill="none" stroke="#56a2d8" stroke-width="2" d="M820.5,-756C820.5,-756 743.5,-756 743.5,-756 737.5,-756 731.5,-750 731.5,-744 731.5,-744 731.5,-732 731.5,-732 731.5,-726 737.5,-720 743.5,-720 743.5,-720 820.5,-720 820.5,-720 826.5,-720 832.5,-726 832.5,-732 832.5,-732 832.5,-744 832.5,-744 832.5,-750 826.5,-756 820.5,-756"/>
<text text-anchor="middle" x="782" y="-735.5" font-family="sans" font-size="10.00">create_GATK_dict</text>
</g>
<!-- 15&#45;&gt;36 -->
<g id="edge77" class="edge"><title>15&#45;&gt;36</title>
<path fill="none" stroke="grey" stroke-width="2" d="M934.959,-1079.82C888.784,-1058.2 822,-1016.34 822,-955 822,-955 822,-955 822,-881 822,-839.484 805.963,-793.612 794.198,-765.545"/>
<polygon fill="grey" stroke="grey" stroke-width="2" points="797.275,-763.842 790.095,-756.051 790.85,-766.619 797.275,-763.842"/>
</g>
<!-- 16 -->
<g id="node17" class="node"><title>16</title>
<path fill="none" stroke="#56d8d8" stroke-width="2" d="M591.5,-900C591.5,-900 526.5,-900 526.5,-900 520.5,-900 514.5,-894 514.5,-888 514.5,-888 514.5,-876 514.5,-876 514.5,-870 520.5,-864 526.5,-864 526.5,-864 591.5,-864 591.5,-864 597.5,-864 603.5,-870 603.5,-876 603.5,-876 603.5,-888 603.5,-888 603.5,-894 597.5,-900 591.5,-900"/>
<text text-anchor="middle" x="559" y="-879.5" font-family="sans" font-size="10.00">sort_sam_gatk</text>
</g>
<!-- 16&#45;&gt;10 -->
<g id="edge16" class="edge"><title>16&#45;&gt;10</title>
<path fill="none" stroke="grey" stroke-width="2" d="M550.101,-863.697C546.003,-855.728 541.051,-846.1 536.507,-837.264"/>
<polygon fill="grey" stroke="grey" stroke-width="2" points="539.483,-835.396 531.797,-828.104 533.258,-838.598 539.483,-835.396"/>
</g>
<!-- 17 -->
<g id="node18" class="node"><title>17</title>
<path fill="none" stroke="#56d8d8" stroke-width="2" d="M1182.5,-900C1182.5,-900 1117.5,-900 1117.5,-900 1111.5,-900 1105.5,-894 1105.5,-888 1105.5,-888 1105.5,-876 1105.5,-876 1105.5,-870 1111.5,-864 1117.5,-864 1117.5,-864 1182.5,-864 1182.5,-864 1188.5,-864 1194.5,-870 1194.5,-876 1194.5,-876 1194.5,-888 1194.5,-888 1194.5,-894 1188.5,-900 1182.5,-900"/>
<text text-anchor="middle" x="1150" y="-879.5" font-family="sans" font-size="10.00">sort_sam_gatk</text>
</g>
<!-- 17&#45;&gt;12 -->
<g id="edge18" class="edge"><title>17&#45;&gt;12</title>
<path fill="none" stroke="grey" stroke-width="2" d="M1154.2,-863.697C1156.1,-855.898 1158.38,-846.509 1160.48,-837.829"/>
<polygon fill="grey" stroke="grey" stroke-width="2" points="1163.89,-838.648 1162.85,-828.104 1157.08,-836.996 1163.89,-838.648"/>
</g>
<!-- 18 -->
<g id="node19" class="node"><title>18</title>
<path fill="none" stroke="#68d856" stroke-width="2" d="M1259,-324C1259,-324 1173,-324 1173,-324 1167,-324 1161,-318 1161,-312 1161,-312 1161,-300 1161,-300 1161,-294 1167,-288 1173,-288 1173,-288 1259,-288 1259,-288 1265,-288 1271,-294 1271,-300 1271,-300 1271,-312 1271,-312 1271,-318 1265,-324 1259,-324"/>
<text text-anchor="middle" x="1216" y="-303.5" font-family="sans" font-size="10.00">hard_filtering_snps</text>
</g>
<!-- 18&#45;&gt;14 -->
<g id="edge20" class="edge"><title>18&#45;&gt;14</title>
<path fill="none" stroke="grey" stroke-width="2" d="M1230.09,-287.697C1236.92,-279.305 1245.26,-269.07 1252.76,-259.861"/>
<polygon fill="grey" stroke="grey" stroke-width="2" points="1255.47,-262.069 1259.07,-252.104 1250.04,-257.649 1255.47,-262.069"/>
</g>
<!-- 19 -->
<g id="node20" class="node"><title>19</title>
<path fill="none" stroke="#56d8c9" stroke-width="2" d="M1393,-324C1393,-324 1301,-324 1301,-324 1295,-324 1289,-318 1289,-312 1289,-312 1289,-300 1289,-300 1289,-294 1295,-288 1301,-288 1301,-288 1393,-288 1393,-288 1399,-288 1405,-294 1405,-300 1405,-300 1405,-312 1405,-312 1405,-318 1399,-324 1393,-324"/>
<text text-anchor="middle" x="1347" y="-303.5" font-family="sans" font-size="10.00">hard_filtering_indels</text>
</g>
<!-- 19&#45;&gt;14 -->
<g id="edge21" class="edge"><title>19&#45;&gt;14</title>
<path fill="none" stroke="grey" stroke-width="2" d="M1328.71,-287.697C1319.57,-279.05 1308.36,-268.449 1298.4,-259.027"/>
<polygon fill="grey" stroke="grey" stroke-width="2" points="1300.75,-256.434 1291.08,-252.104 1295.94,-261.519 1300.75,-256.434"/>
</g>
<!-- 20&#45;&gt;16 -->
<g id="edge22" class="edge"><title>20&#45;&gt;16</title>
<path fill="none" stroke="grey" stroke-width="2" d="M572.551,-935.697C570.545,-927.898 568.131,-918.509 565.899,-909.829"/>
<polygon fill="grey" stroke="grey" stroke-width="2" points="569.278,-908.918 563.398,-900.104 562.499,-910.661 569.278,-908.918"/>
</g>
<!-- 21&#45;&gt;17 -->
<g id="edge23" class="edge"><title>21&#45;&gt;17</title>
<path fill="none" stroke="grey" stroke-width="2" d="M1143.22,-935.697C1144.22,-927.983 1145.41,-918.712 1146.51,-910.112"/>
<polygon fill="grey" stroke="grey" stroke-width="2" points="1150,-910.469 1147.8,-900.104 1143.05,-909.576 1150,-910.469"/>
</g>
<!-- 22 -->
<g id="node23" class="node"><title>22</title>
<path fill="none" stroke="#d6d856" stroke-width="2" d="M1259,-396C1259,-396 1215,-396 1215,-396 1209,-396 1203,-390 1203,-384 1203,-384 1203,-372 1203,-372 1203,-366 1209,-360 1215,-360 1215,-360 1259,-360 1259,-360 1265,-360 1271,-366 1271,-372 1271,-372 1271,-384 1271,-384 1271,-390 1265,-396 1259,-396"/>
<text text-anchor="middle" x="1237" y="-375.5" font-family="sans" font-size="10.00">split_SNPs</text>
</g>
<!-- 22&#45;&gt;18 -->
<g id="edge24" class="edge"><title>22&#45;&gt;18</title>
<path fill="none" stroke="grey" stroke-width="2" d="M1231.81,-359.697C1229.47,-351.898 1226.65,-342.509 1224.05,-333.829"/>
<polygon fill="grey" stroke="grey" stroke-width="2" points="1227.36,-332.677 1221.13,-324.104 1220.65,-334.688 1227.36,-332.677"/>
</g>
<!-- 23 -->
<g id="node24" class="node"><title>23</title>
<path fill="none" stroke="#56d86b" stroke-width="2" d="M1360,-396C1360,-396 1312,-396 1312,-396 1306,-396 1300,-390 1300,-384 1300,-384 1300,-372 1300,-372 1300,-366 1306,-360 1312,-360 1312,-360 1360,-360 1360,-360 1366,-360 1372,-366 1372,-372 1372,-372 1372,-384 1372,-384 1372,-390 1366,-396 1360,-396"/>
<text text-anchor="middle" x="1336" y="-375.5" font-family="sans" font-size="10.00">split_Indels</text>
</g>
<!-- 23&#45;&gt;19 -->
<g id="edge25" class="edge"><title>23&#45;&gt;19</title>
<path fill="none" stroke="grey" stroke-width="2" d="M1338.72,-359.697C1339.93,-351.983 1341.39,-342.712 1342.74,-334.112"/>
<polygon fill="grey" stroke="grey" stroke-width="2" points="1346.22,-334.526 1344.31,-324.104 1339.3,-333.44 1346.22,-334.526"/>
</g>
<!-- 24&#45;&gt;20 -->
<g id="edge27" class="edge"><title>24&#45;&gt;20</title>
<path fill="none" stroke="grey" stroke-width="2" d="M966.124,-1016.63C886.583,-1004.03 736.036,-980.187 647.323,-966.137"/>
<polygon fill="grey" stroke="grey" stroke-width="2" points="647.774,-962.665 637.35,-964.558 646.679,-969.579 647.774,-962.665"/>
</g>
<!-- 24&#45;&gt;21 -->
<g id="edge29" class="edge"><title>24&#45;&gt;21</title>
<path fill="none" stroke="grey" stroke-width="2" d="M1048.84,-1007.88C1064.94,-998.639 1085,-987.131 1102.29,-977.212"/>
<polygon fill="grey" stroke="grey" stroke-width="2" points="1104.11,-980.202 1111.04,-972.19 1100.63,-974.131 1104.11,-980.202"/>
</g>
<!-- 25&#45;&gt;22 -->
<g id="edge30" class="edge"><title>25&#45;&gt;22</title>
<path fill="none" stroke="grey" stroke-width="2" d="M1291.96,-431.697C1282.94,-423.05 1271.88,-412.449 1262.06,-403.027"/>
<polygon fill="grey" stroke="grey" stroke-width="2" points="1264.48,-400.499 1254.84,-396.104 1259.63,-405.552 1264.48,-400.499"/>
</g>
<!-- 25&#45;&gt;23 -->
<g id="edge31" class="edge"><title>25&#45;&gt;23</title>
<path fill="none" stroke="grey" stroke-width="2" d="M1316.43,-431.697C1319.36,-423.813 1322.89,-414.304 1326.14,-405.546"/>
<polygon fill="grey" stroke="grey" stroke-width="2" points="1329.45,-406.697 1329.65,-396.104 1322.88,-404.26 1329.45,-406.697"/>
</g>
<!-- 26&#45;&gt;25 -->
<g id="edge33" class="edge"><title>26&#45;&gt;25</title>
<path fill="none" stroke="grey" stroke-width="2" d="M1231.44,-503.876C1244.79,-494.893 1261.32,-483.763 1275.78,-474.034"/>
<polygon fill="grey" stroke="grey" stroke-width="2" points="1278.12,-476.677 1284.46,-468.19 1274.21,-470.87 1278.12,-476.677"/>
</g>
<!-- 27&#45;&gt;26 -->
<g id="edge36" class="edge"><title>27&#45;&gt;26</title>
<path fill="none" stroke="grey" stroke-width="2" d="M758.009,-586.225C851.134,-573.082 1055.66,-544.217 1152.78,-530.511"/>
<polygon fill="grey" stroke="grey" stroke-width="2" points="1153.55,-533.938 1162.96,-529.074 1152.57,-527.006 1153.55,-533.938"/>
</g>
<!-- 28&#45;&gt;26 -->
<g id="edge37" class="edge"><title>28&#45;&gt;26</title>
<path fill="none" stroke="grey" stroke-width="2" d="M1166.85,-575.697C1173.03,-567.389 1180.54,-557.277 1187.32,-548.141"/>
<polygon fill="grey" stroke="grey" stroke-width="2" points="1190.14,-550.219 1193.29,-540.104 1184.52,-546.045 1190.14,-550.219"/>
</g>
<!-- 29&#45;&gt;27 -->
<g id="edge39" class="edge"><title>29&#45;&gt;27</title>
<path fill="none" stroke="grey" stroke-width="2" d="M565.724,-647.876C592.299,-638.137 625.762,-625.872 653.769,-615.608"/>
<polygon fill="grey" stroke="grey" stroke-width="2" points="655.243,-618.796 663.428,-612.068 652.834,-612.223 655.243,-618.796"/>
</g>
<!-- 30&#45;&gt;27 -->
<g id="edge40" class="edge"><title>30&#45;&gt;27</title>
<path fill="none" stroke="grey" stroke-width="2" d="M661.82,-647.697C669.57,-639.22 679.039,-628.864 687.524,-619.583"/>
<polygon fill="grey" stroke="grey" stroke-width="2" points="690.197,-621.846 694.362,-612.104 685.031,-617.123 690.197,-621.846"/>
</g>
<!-- 31&#45;&gt;27 -->
<g id="edge41" class="edge"><title>31&#45;&gt;27</title>
<path fill="none" stroke="grey" stroke-width="2" d="M757.427,-647.697C749.798,-639.22 740.477,-628.864 732.124,-619.583"/>
<polygon fill="grey" stroke="grey" stroke-width="2" points="734.685,-617.196 725.394,-612.104 729.482,-621.879 734.685,-617.196"/>
</g>
<!-- 32&#45;&gt;28 -->
<g id="edge43" class="edge"><title>32&#45;&gt;28</title>
<path fill="none" stroke="grey" stroke-width="2" d="M954.802,-649.897C996.386,-638.437 1053.43,-622.715 1095.83,-611.032"/>
<polygon fill="grey" stroke="grey" stroke-width="2" points="1097.01,-614.336 1105.72,-608.305 1095.15,-607.588 1097.01,-614.336"/>
</g>
<!-- 33&#45;&gt;28 -->
<g id="edge44" class="edge"><title>33&#45;&gt;28</title>
<path fill="none" stroke="grey" stroke-width="2" d="M1058.07,-647.876C1074.83,-638.639 1095.71,-627.131 1113.7,-617.212"/>
<polygon fill="grey" stroke="grey" stroke-width="2" points="1115.74,-620.082 1122.81,-612.19 1112.37,-613.952 1115.74,-620.082"/>
</g>
<!-- 34&#45;&gt;28 -->
<g id="edge45" class="edge"><title>34&#45;&gt;28</title>
<path fill="none" stroke="grey" stroke-width="2" d="M1154,-647.697C1154,-639.983 1154,-630.712 1154,-622.112"/>
<polygon fill="grey" stroke="grey" stroke-width="2" points="1157.5,-622.104 1154,-612.104 1150.5,-622.104 1157.5,-622.104"/>
</g>
<!-- 35&#45;&gt;29 -->
<g id="edge49" class="edge"><title>35&#45;&gt;29</title>
<path fill="none" stroke="grey" stroke-width="2" d="M850.765,-722.034C847.811,-721.303 844.873,-720.617 842,-720 731.482,-696.257 698.708,-706.365 583.615,-683.968"/>
<polygon fill="grey" stroke="grey" stroke-width="2" points="584.2,-680.516 573.71,-682 582.836,-687.382 584.2,-680.516"/>
</g>
<!-- 35&#45;&gt;30 -->
<g id="edge54" class="edge"><title>35&#45;&gt;30</title>
<path fill="none" stroke="grey" stroke-width="2" d="M850.973,-722.551C847.939,-721.682 844.929,-720.825 842,-720 817.372,-713.062 757.645,-696.949 710.548,-684.298"/>
<polygon fill="grey" stroke="grey" stroke-width="2" points="711.273,-680.868 700.707,-681.655 709.457,-687.629 711.273,-680.868"/>
</g>
<!-- 35&#45;&gt;31 -->
<g id="edge59" class="edge"><title>35&#45;&gt;31</title>
<path fill="none" stroke="grey" stroke-width="2" d="M868.932,-719.876C852.173,-710.639 831.294,-699.131 813.298,-689.212"/>
<polygon fill="grey" stroke="grey" stroke-width="2" points="814.634,-685.952 804.187,-684.19 811.255,-692.082 814.634,-685.952"/>
</g>
<!-- 35&#45;&gt;32 -->
<g id="edge64" class="edge"><title>35&#45;&gt;32</title>
<path fill="none" stroke="grey" stroke-width="2" d="M900,-719.697C900,-711.983 900,-702.712 900,-694.112"/>
<polygon fill="grey" stroke="grey" stroke-width="2" points="903.5,-694.104 900,-684.104 896.5,-694.104 903.5,-694.104"/>
</g>
<!-- 35&#45;&gt;33 -->
<g id="edge69" class="edge"><title>35&#45;&gt;33</title>
<path fill="none" stroke="grey" stroke-width="2" d="M931.068,-719.876C947.827,-710.639 968.706,-699.131 986.702,-689.212"/>
<polygon fill="grey" stroke="grey" stroke-width="2" points="988.745,-692.082 995.813,-684.19 985.366,-685.952 988.745,-692.082"/>
</g>
<!-- 35&#45;&gt;34 -->
<g id="edge74" class="edge"><title>35&#45;&gt;34</title>
<path fill="none" stroke="grey" stroke-width="2" d="M949.275,-723.42C989.244,-712.405 1045.9,-696.791 1089.48,-684.78"/>
<polygon fill="grey" stroke="grey" stroke-width="2" points="1090.42,-688.152 1099.13,-682.121 1088.56,-681.403 1090.42,-688.152"/>
</g>
<!-- 36&#45;&gt;29 -->
<g id="edge50" class="edge"><title>36&#45;&gt;29</title>
<path fill="none" stroke="grey" stroke-width="2" d="M731.291,-723.503C689.155,-712.288 628.95,-696.264 583.408,-684.143"/>
<polygon fill="grey" stroke="grey" stroke-width="2" points="584.197,-680.731 573.633,-681.541 582.397,-687.496 584.197,-680.731"/>
</g>
<!-- 36&#45;&gt;30 -->
<g id="edge55" class="edge"><title>36&#45;&gt;30</title>
<path fill="none" stroke="grey" stroke-width="2" d="M748.731,-719.876C730.537,-710.512 707.809,-698.814 688.36,-688.803"/>
<polygon fill="grey" stroke="grey" stroke-width="2" points="689.89,-685.654 679.397,-684.19 686.687,-691.878 689.89,-685.654"/>
</g>
<!-- 36&#45;&gt;31 -->
<g id="edge60" class="edge"><title>36&#45;&gt;31</title>
<path fill="none" stroke="grey" stroke-width="2" d="M779.775,-719.697C778.783,-711.983 777.592,-702.712 776.486,-694.112"/>
<polygon fill="grey" stroke="grey" stroke-width="2" points="779.946,-693.576 775.199,-684.104 773.003,-694.469 779.946,-693.576"/>
</g>
<!-- 36&#45;&gt;32 -->
<g id="edge65" class="edge"><title>36&#45;&gt;32</title>
<path fill="none" stroke="grey" stroke-width="2" d="M810.866,-719.876C826.295,-710.724 845.481,-699.342 862.097,-689.485"/>
<polygon fill="grey" stroke="grey" stroke-width="2" points="864.208,-692.302 871.023,-684.19 860.637,-686.282 864.208,-692.302"/>
</g>
<!-- 36&#45;&gt;33 -->
<g id="edge70" class="edge"><title>36&#45;&gt;33</title>
<path fill="none" stroke="grey" stroke-width="2" d="M832.764,-722.496C870.444,-711.73 922.105,-696.97 962.677,-685.378"/>
<polygon fill="grey" stroke="grey" stroke-width="2" points="963.818,-688.692 972.472,-682.579 961.895,-681.961 963.818,-688.692"/>
</g>
<!-- 36&#45;&gt;34 -->
<g id="edge75" class="edge"><title>36&#45;&gt;34</title>
<path fill="none" stroke="grey" stroke-width="2" d="M832.621,-722.148C835.784,-721.378 838.929,-720.654 842,-720 948.267,-697.368 979.722,-706.072 1089.65,-684.144"/>
<polygon fill="grey" stroke="grey" stroke-width="2" points="1090.36,-687.57 1099.46,-682.147 1088.96,-680.711 1090.36,-687.57"/>
</g>
</g>
</svg>
